{
<<<<<<< HEAD
	"process_id" : 26324,
	"version" : "2020.3.17f1",
	"app_path" : "E:/unity/2020.3.3/Editor/Unity.exe",
	"app_contents_path" : "E:/unity/2020.3.3/Editor/Data"
=======
	"process_id" : 2372,
	"version" : "2020.3.17f1",
	"app_path" : "C:/Program Files/Unity/Hub/Editor/2020.3.17f1/Editor/Unity.exe",
	"app_contents_path" : "C:/Program Files/Unity/Hub/Editor/2020.3.17f1/Editor/Data"
>>>>>>> d273a58ca3ab378bdfde653d9757b7d556e839b7
}