%YAML 1.1
%TAG !u! tag:unity3d.com,2011:
--- !u!114 &11400000
MonoBehaviour:
  m_ObjectHideFlags: 0
  m_CorrespondingSourceObject: {fileID: 0}
  m_PrefabInstance: {fileID: 0}
  m_PrefabAsset: {fileID: 0}
  m_GameObject: {fileID: 0}
  m_Enabled: 1
  m_EditorHideFlags: 0
  m_Script: {fileID: 11500000, guid: a6e1be1f3bac315428366637f2f88ac8, type: 3}
  m_Name: FindFatherQuest
  m_EditorClassIdentifier: 
  _localId: 0
  _questName: "\u0421\u043F\u0430\u0441\u0435\u043D\u0438\u0435 \u043E\u0442\u0446\u0430"
  _description: "\u041F\u0440\u043E\u0448\u0443 \u0442\u0435\u0431\u044F, \u043D\u0430\u0439\u0434\u0438
    \u043C\u043E\u0435\u0433\u043E \u043E\u0442\u0446\u0430."
  _question: "\u0422\u044B \u043D\u0430\u0448\u0435\u043B \u043C\u043E\u0433\u043E
    \u043E\u0442\u0446\u0430?"
  _congratulation: "\u0411\u043B\u0430\u0433\u043E\u0434\u0430\u0440\u044E \u0442\u0435\u0431\u044F!"
  _agreement: {fileID: 8624112184446451207, guid: bf9156dbb14d3e74c8c0483eba9566ec,
    type: 3}
  _npc: {fileID: 7821464911933066127, guid: c8d1586b6910d544f9bb2a3220d30d1e, type: 3}
  _status: 0
